.............
----------------------------------------------------------------------
Ran 13 tests in 0.001s

OK
Name               Stmts   Miss Branch BrPart  Cover   Missing
--------------------------------------------------------------
Diplomacy.py          48      0     34      0   100%
TestDiplomacy.py      66      0      2      0   100%
--------------------------------------------------------------
TOTAL                114      0     36      0   100%
