Name               Stmts   Miss Branch BrPart  Cover   Missing
--------------------------------------------------------------
Diplomacy.py          98      0     52      0   100%
TestDiplomacy.py     159      0      0      0   100%
--------------------------------------------------------------
TOTAL                257      0     52      0   100%
